{
    "title": "RumMDOk",
    "icon": "resources/icons/android.png",
    "window_size": {
        "width": 1200,
        "height": 800
    },
    "default_workspace": "",
    "core_version": "1.0.0",
    "authorization": true,
    "activated_plugins": [
        123456789,
        987654321
    ]
}